…
Below is a table summarizing the number of items ordered from aisle. In
total, there are 134 aisles, with fresh vegetables and fresh fruits
holding the most items ordered by far.

``` r
instacart |> 
  count(aisle) |> 
  arrange(desc(n))
```

    ## # A tibble: 134 × 2
    ##    aisle                              n
    ##    <chr>                          <int>
    ##  1 fresh vegetables              150609
    ##  2 fresh fruits                  150473
    ##  3 packaged vegetables fruits     78493
    ##  4 yogurt                         55240
    ##  5 packaged cheese                41699
    ##  6 water seltzer sparkling water  36617
    ##  7 milk                           32644
    ##  8 chips pretzels                 31269
    ##  9 soy lactosefree                26240
    ## 10 bread                          23635
    ## # ℹ 124 more rows
…
<img src="p8105_hw3_ar4459_practice_files/figure-gfm/unnamed-chunk-16-2.png" width="90%" />

Total activity

``` r
merged_df |> 
  group_by(seqn, phys_act) |> 
  summarize(sum(phys_act))
```

    ## `summarise()` has grouped output by 'seqn'. You can override using the
    ## `.groups` argument.

    ## # A tibble: 349,275 × 3
    ## # Groups:   seqn [250]
    ##     seqn phys_act `sum(phys_act)`
    ##    <dbl>    <dbl>           <dbl>
    ##  1 62161   0.0163          0.0163
    ##  2 62161   0.0185          0.0185
    ##  3 62161   0.0243          0.0243
    ##  4 62161   0.0245          0.0245
    ##  5 62161   0.0258          0.0517
    ##  6 62161   0.0263          0.0263
    ##  7 62161   0.027           0.027 
    ##  8 62161   0.0273          0.0547
    ##  9 62161   0.0277          0.0277
    ## 10 62161   0.0277          0.0277
    ## # ℹ 349,265 more rows
